{
  "defaultSeverity": "error",
  "extends": ["tslint:recommended"],
  "jsRules": {},
  "rules": {
    "no-console": false,
    "semicolon": [true, "always"],
    "indent": [true, "tabs", 2],
    "arrow-parens": true,
    "import-spacing": true,
    "quotemark": [true, "double"],
    "no-consecutive-blank-lines": true,
    "eofline": false,
    "interface-name": false,
    "max-classes-per-file": false
  },
  "rulesDirectory": []
}
